*** Life<Cell> 9x18 ***

Generation = 0, Population = 15.
------------------
----0-------------
---------------0--
-------0----------
0-0---------------
---------00-------
--0-----0--0--0---
-------0---0------
--0------------0--

Generation = 10, Population = 71.
.0*01--0.1.1-***-0
.0.-1---.-.--0-0--
*-*0--1-*11110-.*1
.*-1-.----1.--.---
1110*--11-*11*...-
11...*.*1-**.1**-1
0---...0*..*.-**.0
--0*0-..-*-*--.11*
----*1-.------.**-

*** Life<Cell> 18x2 ***

Generation = 0, Population = 13.
0-
--
00
--
-0
--
-0
00
--
0-
-0
-0
0-
--
-0
--
-0
--

Generation = 10, Population = 13.
-.
0*
**
1.
*-
01
..
.-
..
..
..
..
..
.1
**
0-
..
-0

*** Life<Cell> 20x13 ***

Generation = 0, Population = 15.
----------0--
-0-0---------
-------------
-------------
----0------0-
-------------
-------------
-------------
-------------
---0---0-----
-------------
-----0---0---
-0--0--------
-------------
-------------
-------------
-------------
0------------
-------0-0---
------0------

Generation = 10, Population = 111.
0-0---0-*1***
---0--0.0.---
-00101--11.--
-1--1.-1000--
110..-.-.-.11
-.-*--0-00---
-*010--.1----
0.-----------
-1--0--00*1-0
-11---0--1---
*---1-01-.1-0
*.111*.-1.-1-
0*..-..001-.*
.--.1*.*1.1--
1-100--.*...-
.1-10*.*..*-0
-0--11-1001--
-1--1*01*---0
----*--1-.-0-
--0-1-101*10-

*** Life<Cell> 12x11 ***

Generation = 0, Population = 14.
-----------
----00-----
0----------
-0--------0
0---00--0--
-----------
--0--------
-----------
---------0-
------00---
---------0-
-----------

Generation = 10, Population = 58.
0***---*.1*
-..**.**0..
**--..*-.-*
0.1-..*-*0.
***.-10*1-.
--1*.1-.-1.
1.*--11*.*.
00*-*1**.--
--*-**-**.-
.1*...--.**
---**.-.*.-
--..--..*-.

*** Life<Cell> 16x9 ***

Generation = 0, Population = 13.
--------0
0---0----
-----0--0
---------
---------
---0-0---
---------
---------
---------
---------
------0--
---------
-0----0--
---0-----
----0----
--------0

Generation = 10, Population = 64.
-011...01
11*.-*.0.
0-*.--*.*
*.--..1-*
-.1--.10-
*--.-1101
0.---1-**
.1---10-1
-1.0101-*
.-1.0---1
--1-..-.-
0--1-1***
0...1-00.
-*0---1..
**-1.**-.
--**----0

*** Life<Cell> 20x17 ***

Generation = 0, Population = 15.
-----------------
-----------------
---0-0-----------
-----------------
---------0-------
-----------------
-----------------
0----------------
-----------------
-----------------
-0----0----------
-----------------
--0-------0----0-
-----------------
-----0----0------
------------0---0
0----------0-----
-----------------
-----------------
-----------------

Generation = 10, Population = 116.
---0--0--0-0-0---
-----------------
--101--1100--0---
------1----------
1*-*0..-01010----
------0-0---0---0
0-.0-*-*1-.-1--0-
*-*-0-*-0-------0
0-1.1010*-1*-----
*--1*01-----1---0
*..*.0*11.1------
*-0-0-1-----1----
*.11.--00*0....-1
0---1---0-0-*-00-
1--11--1*1.1.-...
*-0----1.0.---.0-
*-1---.1.--*.-.-0
1-------------1-0
1---..-111.1.0-0-
----0---01.11---0

*** Life<Cell> 4x2 ***

Generation = 0, Population = 8.
00
00
00
00

Generation = 10, Population = 0.
--
..
..
--

*** Life<Cell> 10x6 ***

Generation = 0, Population = 13.
----0-
-0----
--00--
----0-
--00--
----00
--0---
0----0
------
0-----

Generation = 10, Population = 25.
-.----
-0-.-1
..*...
1-10.*
1.-..*
*0...*
...*.-
.****.
1-*10-
0-*-**

*** Life<Cell> 7x14 ***

Generation = 0, Population = 15.
---00-----0---
---------0-0--
--------------
------0--0----
--0-----0---0-
-------0------
--0---00-0----

Generation = 10, Population = 53.
1*****1*.0**-1
0-0-*0.*0..-00
*-.**0**-1--1-
1..**1*0.*1-.-
*-.1-*10..--1-
----....*..*.*
.1--01****..*.

*** Life<Cell> 20x8 ***

Generation = 0, Population = 15.
-------0
00------
--------
---0----
------0-
-0---0--
---00---
--------
---0----
--------
---0----
--------
--------
--0-----
--------
------0-
------0-
--------
--------
-0------

Generation = 10, Population = 82.
0-0.**.1
*.**.1-*
.*-**.-.
.1..*-1*
-.-*---.
*.1*-.11
**......
11..1---
0-.*.*.*
.110*-.-
0-1**-*0
-0--..*1
--01***1
**-0..*.
1*--*1*-
..-*-1.*
*-.11*.*
*1-*-0.*
01--*11-
01.-..**
