*** Life<ConwayCell> 10x19 ***

Generation = 0, Population = 14.
..................*
...................
.*..*..............
*.........*........
.............*.....
.*.........*...*...
........*..........
...................
..*....*...........
...........*......*

Generation = 2, Population = 0.
...................
...................
...................
...................
...................
...................
...................
...................
...................
...................

Generation = 4, Population = 0.
...................
...................
...................
...................
...................
...................
...................
...................
...................
...................

*** Life<ConwayCell> 20x13 ***

Generation = 0, Population = 12.
............*
.............
......*......
.....*.......
.............
.............
............*
*............
.............
.............
.........*...
.............
..........*..
.........*...
........*....
.............
.............
..*..........
.............
......*...*..

*** Life<ConwayCell> 4x14 ***

Generation = 0, Population = 9.
.*..*.........
............*.
.........*...*
*.*.......**..

Generation = 3, Population = 6.
..............
..........**..
..........**..
..........**..

*** Life<ConwayCell> 19x19 ***

Generation = 0, Population = 15.
........*..........
...................
............*......
.............*.....
...................
...................
...................
*..........*.......
...................
............*......
......*............
.....*...*.........
.................*.
...................
.........*........*
...................
...................
...................
.......*...*...*...

Generation = 1, Population = 0.
...................
...................
...................
...................
...................
...................
...................
...................
...................
...................
...................
...................
...................
...................
...................
...................
...................
...................
...................

Generation = 2, Population = 0.
...................
...................
...................
...................
...................
...................
...................
...................
...................
...................
...................
...................
...................
...................
...................
...................
...................
...................
...................

Generation = 3, Population = 0.
...................
...................
...................
...................
...................
...................
...................
...................
...................
...................
...................
...................
...................
...................
...................
...................
...................
...................
...................

Generation = 4, Population = 0.
...................
...................
...................
...................
...................
...................
...................
...................
...................
...................
...................
...................
...................
...................
...................
...................
...................
...................
...................

Generation = 5, Population = 0.
...................
...................
...................
...................
...................
...................
...................
...................
...................
...................
...................
...................
...................
...................
...................
...................
...................
...................
...................

Generation = 6, Population = 0.
...................
...................
...................
...................
...................
...................
...................
...................
...................
...................
...................
...................
...................
...................
...................
...................
...................
...................
...................

Generation = 7, Population = 0.
...................
...................
...................
...................
...................
...................
...................
...................
...................
...................
...................
...................
...................
...................
...................
...................
...................
...................
...................

Generation = 8, Population = 0.
...................
...................
...................
...................
...................
...................
...................
...................
...................
...................
...................
...................
...................
...................
...................
...................
...................
...................
...................

Generation = 9, Population = 0.
...................
...................
...................
...................
...................
...................
...................
...................
...................
...................
...................
...................
...................
...................
...................
...................
...................
...................
...................

Generation = 10, Population = 0.
...................
...................
...................
...................
...................
...................
...................
...................
...................
...................
...................
...................
...................
...................
...................
...................
...................
...................
...................

Generation = 11, Population = 0.
...................
...................
...................
...................
...................
...................
...................
...................
...................
...................
...................
...................
...................
...................
...................
...................
...................
...................
...................

Generation = 12, Population = 0.
...................
...................
...................
...................
...................
...................
...................
...................
...................
...................
...................
...................
...................
...................
...................
...................
...................
...................
...................

Generation = 13, Population = 0.
...................
...................
...................
...................
...................
...................
...................
...................
...................
...................
...................
...................
...................
...................
...................
...................
...................
...................
...................

*** Life<ConwayCell> 19x17 ***

Generation = 0, Population = 7.
...........*.....
*................
.................
.................
.................
................*
.................
.................
.................
.................
.................
.................
.*...............
.............*...
.................
..*..............
..............*..
.................
.................

Generation = 2, Population = 0.
.................
.................
.................
.................
.................
.................
.................
.................
.................
.................
.................
.................
.................
.................
.................
.................
.................
.................
.................

Generation = 4, Population = 0.
.................
.................
.................
.................
.................
.................
.................
.................
.................
.................
.................
.................
.................
.................
.................
.................
.................
.................
.................

Generation = 6, Population = 0.
.................
.................
.................
.................
.................
.................
.................
.................
.................
.................
.................
.................
.................
.................
.................
.................
.................
.................
.................

Generation = 8, Population = 0.
.................
.................
.................
.................
.................
.................
.................
.................
.................
.................
.................
.................
.................
.................
.................
.................
.................
.................
.................

Generation = 10, Population = 0.
.................
.................
.................
.................
.................
.................
.................
.................
.................
.................
.................
.................
.................
.................
.................
.................
.................
.................
.................

Generation = 12, Population = 0.
.................
.................
.................
.................
.................
.................
.................
.................
.................
.................
.................
.................
.................
.................
.................
.................
.................
.................
.................

*** Life<ConwayCell> 13x18 ***

Generation = 0, Population = 13.
.......*..........
..................
..................
..................
.........*...*....
..............*...
...*.*...*........
..................
...*..............
.*...*.......*...*
...*..............
..................
..................

*** Life<ConwayCell> 19x6 ***

Generation = 0, Population = 11.
*.....
.*...*
......
..*...
....*.
..*.*.
......
...*..
......
......
.*....
......
...*..
......
.*....
......
......
......
......

Generation = 3, Population = 0.
......
......
......
......
......
......
......
......
......
......
......
......
......
......
......
......
......
......
......

Generation = 6, Population = 0.
......
......
......
......
......
......
......
......
......
......
......
......
......
......
......
......
......
......
......

Generation = 9, Population = 0.
......
......
......
......
......
......
......
......
......
......
......
......
......
......
......
......
......
......
......

Generation = 12, Population = 0.
......
......
......
......
......
......
......
......
......
......
......
......
......
......
......
......
......
......
......

Generation = 15, Population = 0.
......
......
......
......
......
......
......
......
......
......
......
......
......
......
......
......
......
......
......

*** Life<ConwayCell> 20x13 ***

Generation = 0, Population = 14.
.............
.............
.............
....*........
.........*...
....*........
....*........
.......*.....
......*......
...........**
.............
.............
....*........
.............
.............
..........*..
........*....
.....*.......
....*........
..........*..

Generation = 2, Population = 0.
.............
.............
.............
.............
.............
.............
.............
.............
.............
.............
.............
.............
.............
.............
.............
.............
.............
.............
.............
.............

Generation = 4, Population = 0.
.............
.............
.............
.............
.............
.............
.............
.............
.............
.............
.............
.............
.............
.............
.............
.............
.............
.............
.............
.............

Generation = 6, Population = 0.
.............
.............
.............
.............
.............
.............
.............
.............
.............
.............
.............
.............
.............
.............
.............
.............
.............
.............
.............
.............

Generation = 8, Population = 0.
.............
.............
.............
.............
.............
.............
.............
.............
.............
.............
.............
.............
.............
.............
.............
.............
.............
.............
.............
.............

Generation = 10, Population = 0.
.............
.............
.............
.............
.............
.............
.............
.............
.............
.............
.............
.............
.............
.............
.............
.............
.............
.............
.............
.............

Generation = 12, Population = 0.
.............
.............
.............
.............
.............
.............
.............
.............
.............
.............
.............
.............
.............
.............
.............
.............
.............
.............
.............
.............

Generation = 14, Population = 0.
.............
.............
.............
.............
.............
.............
.............
.............
.............
.............
.............
.............
.............
.............
.............
.............
.............
.............
.............
.............

*** Life<ConwayCell> 20x18 ***

Generation = 0, Population = 7.
..................
.............*....
..................
..................
..................
*.................
..................
..................
..........*.......
..................
..................
..................
..................
.....*.*....*.....
..................
..................
..................
..................
..................
...*..............

Generation = 2, Population = 0.
..................
..................
..................
..................
..................
..................
..................
..................
..................
..................
..................
..................
..................
..................
..................
..................
..................
..................
..................
..................

*** Life<ConwayCell> 20x7 ***

Generation = 0, Population = 9.
.....*.
.......
.......
.......
.......
.....**
...*...
.......
.......
.......
.......
.......
.......
.......
.*.**..
.......
*......
.......
....*..
.......
