*** Life<Cell> 13x6 ***

Generation = 0, Population = 6.
------
----0-
------
------
------
------
------
-----0
------
-0----
-----0
------
0--0--

Generation = 2, Population = 15.
------
--0---
------
----0-
------
-----0
------
-0-0-0
-----1
---0-1
0----0
-0----
-110--

*** Life<Cell> 7x10 ***

Generation = 0, Population = 10.
----------
----0-0---
---0----0-
0-------0-
---------0
0-------0-
--------0-

Generation = 1, Population = 22.
----0-0---
-------00-
0-0---0010
-0-0---01-
--------0-
-0-----01-
0------010

Generation = 2, Population = 22.
---0----0-
0-0-0-0---
-0---01--1
--0-0---*-
---0---0-0
--0---0-*-
------0-*1

Generation = 3, Population = 30.
0-----00-0
-0-0-01000
--0-01-0--
---0--0-*0
--0-------
-0---010.0
--0--01-**

Generation = 4, Population = 27.
---0----01
--0-0-*---
----1--11-
--0----0*1
-----0-00-
0-0-0-*1.1
---00--0**

Generation = 5, Population = 31.
------001*
-0-01-.--0
---0*1----
-0-00001.*
0-----01-0
---010.*.*
0--1-0--.*

Generation = 6, Population = 29.
-0-0001--*
0-----*0-1
--01.--1--
----111-..
-----0-*--
--0---.*.*
-00*0110*.

Generation = 7, Population = 34.
---1----1.
--0-1-.--*
001**11*11
--0-***1..
--0--10*00
--1-1-....
011*---1*.

*** Life<Cell> 14x15 ***

Generation = 0, Population = 8.
---------------
---------0-----
----------0----
---------------
-0------------0
------0------0-
---------------
---------------
---------------
--0------------
-----------0---
---------------
---------------
---------------

Generation = 3, Population = 63.
-------0-0-----
-0----0-------0
0-0---0------0-
-0-0-0-0----0-0
--0---0-0--0-0-
-0---0-0-0-----
0---0-0-0--0---
---0-0-0---00--
0-0-0-0---0-00-
-0-0-0---0-0-0-
0-0-0---0-0-0-0
-0-0-----0-0-0-
--0-------0-0--
-----------0---

Generation = 6, Population = 55.
-0-0--1-0-0---0
---01---1--0---
----00.-0------
-----11--01--0-
------100--00--
--------0--00--
-----0--010*-10
0---------1----
---0---0--000-0
0-0--------0---
-0---0---0----0
0-0----------0-
-------0-------
0-0-0----------

*** Life<Cell> 12x10 ***

Generation = 0, Population = 7.
---0------
------0---
----------
---00-0---
----------
----------
----------
-------0--
----------
--------0-
----------
----------

Generation = 5, Population = 37.
--0-----0-
-0-1-0----
0-0.--0-0-
-1.1.--0-0
0-0-0-0---
---1-0.--0
----0---00
---0---0..
------0-00
---0-0-.-0
----0--0--
------0*10

*** Life<Cell> 11x7 ***

Generation = 0, Population = 6.
-------
-------
-------
------0
-0---0-
--0----
-0-----
-------
-----0-
-------
-------

Generation = 4, Population = 15.
-0---0-
--0----
-0-----
--0-0--
-----0-
0-----0
-0---0-
------0
-------
--0----
-0---0-

*** Life<Cell> 6x6 ***

Generation = 0, Population = 10.
0-----
--0---
-0-0-0
0-----
-00-0-
-0----

Generation = 5, Population = 22.
-*1.--
-*10-0
*0----
1*-0--
*1**1*
*.000*

*** Life<Cell> 14x14 ***

Generation = 0, Population = 12.
--------------
-------00-----
--00----------
0-------------
--------------
--0-----------
----0---------
--------0-----
--------------
--------------
-0------------
--0---0---0---
--------------
--------------

Generation = 3, Population = 87.
0011000--00---
1-00--*11*10--
**11*--0000---
1-00-00110----
00*--0-0------
----*000-0----
-0*000100-0---
--100010-0-0--
0-00-0--0-----
----00-----0--
0---0-0-0-0-0-
---0-------0-0
------0---0-0-
---0-0-0-0-0--

Generation = 6, Population = 67.
--**00---0----
*11.*1....*.-1
..1-.-*11-----
--.00-1-*-000-
1-.-1-110-----
----.1*--1--0-
*..1-01-.-1---
*1.1--.11-0-0-
1-0010--0-----
0-----0-0---0-
--1-.-10------
--0-1---0---0-
-0--00--------
------0-0---0-

*** Life<Cell> 13x12 ***

Generation = 0, Population = 14.
----------0-
--0--0------
-0---0------
--0--00-----
-----------0
------------
------------
------------
------------
---0--------
----000-----
------------
-------0----

Generation = 4, Population = 46.
-0---.0---01
01*--*1--0--
-----0---1*-
01*.--1--01-
-------1-00-
--01-0------
-0--0-1-----
--1--11-----
-------1---0
-----.-0----
00*-.-.0010-
------------
---000*----0

Generation = 8, Population = 61.
-*101.*-1--.
*..-..---*11
--0-1..-1.*1
*-*.*-..1...
-*01*1-1--0-
--1.--*.--.-
--1---.---*-
--101.*0----
-0*0..-..-1-
1----.101-10
-0*..0*0-..*
1---00-1--0-
-11---.*1--1

*** Life<Cell> 15x9 ***

Generation = 0, Population = 13.
-------00
---0---0-
--0------
00---0---
---------
-0-----0-
-------0-
---------
---------
---------
---0-----
---------
---------
---------
--------0

Generation = 1, Population = 32.
---0--0-1
----0-01-
0----0-0-
11--0-0--
0----0-0-
0-0---010
-0----010
-------0-
---------
---0-----
--0-0----
---0-----
---------
--------0
-------0-

Generation = 2, Population = 30.
--0--010-
0----0---
1---0--10
**00---0-
--0----1-
10-0-----
-----0---
-0-----1-
---0---0-
---------
-0---0---
---------
---0----0
---------
------0--

Generation = 3, Population = 68.
00-00--11
100--1--0
--0---0-1
*.11--0--
-010--0*0
*10-00-1-
0--00-01-
0-00-00*0
-00-0-010
-0-0-0-0-
0-0-0-0--
-0-0-0--0
--0-0--0-
---0--0-0
-----0-0-

Generation = 4, Population = 28.
--011-1*-
-1-------
------1-*
..*-00---
0------.1
**---1---
--0----*-
10---1-.-
---------
-1-----1-
--------0
---------
--------0
---------
---00-0--

Generation = 5, Population = 47.
--1-*-*.1
1--00--10
-00-0---.
...-11---
1-1-0--.-
**--0-010
-0-0--0.0
*1--0-0.-
0----0-1-
0-0---0--
-0-------
---------
-------0-
---00-0-0
--011--0-

*** Life<Cell> 11x12 ***

Generation = 0, Population = 9.
----------0-
------------
------------
------------
-----0-----0
------------
----0------0
----0-------
0----0------
-0----------
------------

Generation = 1, Population = 22.
---------0-0
----------0-
------------
-----0-----0
----0-0---0-
----00------
---010----0-
0--01------0
------0-----
--0--0------
-0----------

Generation = 2, Population = 27.
--------0-0-
------------
-----0----00
------------
---01--0-0--
----1-------
0-0---0--0--
-00---0-----
0-000--0---0
---00-------
0----0------

Generation = 3, Population = 55.
-------0---0
-----0--0--0
----0-0--011
---000-0-000
--01-00---0-
0-0-*000----
-01010100-0-
011-101--0-0
-0-1-0--0-0-
-------0---0
-0-0--0-----

Generation = 4, Population = 31.
-----00---01
------------
----1-----**
----1-------
00---1-0--1-
-0--.-------
0------110--
1-------0---
-10-01---0-0
-----0------
0---00-----0

Generation = 5, Population = 60.
----0110-01*
----000-----
---0*0---0..
00-0*--0---0
1-0-----00-0
010-.0--000-
1-----1**10-
*-1-10--10-0
-*1-1-0-----
000-0-0--0--
-0-01-0---0-

*** Life<Cell> 12x13 ***

Generation = 0, Population = 7.
-------------
----00-0-----
-----------0-
--------0----
-------------
-------------
------------0
-------------
---------0---
-------------
-------------
-------------

Generation = 1, Population = 25.
----00-0-----
---011--0--0-
----00-00-0-0
-------0-0-0-
--------0----
------------0
-----------0-
---------0--0
--------0-0--
---------0---
-------------
-------------

