11

13 6
7
12 0
10 5
10 5
1 4
7 5
9 1
12 3
2 2

7 10
11
5 8
1 4
6 8
3 8
3 0
2 8
1 6
5 0
4 9
2 3
2 3
7 1

14 15
8
1 9
5 6
9 2
4 14
4 1
5 13
10 11
2 10
6 3

12 10
7
3 4
3 6
3 3
1 6
9 8
0 3
7 7
9 5

11 7
6
5 2
8 5
6 1
4 1
3 6
4 5
6 4

6 6
11
3 0
4 1
4 2
4 4
2 1
2 1
0 0
5 1
2 3
1 2
2 5
5 5

14 14
12
2 3
2 2
3 0
10 1
11 2
5 2
6 4
11 6
1 7
11 10
7 8
1 8
6 3

13 12
14
4 11
10 6
1 5
3 6
2 5
0 10
9 3
1 2
10 5
10 4
12 7
3 5
3 2
2 1
9 4

15 9
13
1 3
14 8
3 1
6 7
1 7
3 5
5 1
2 2
5 7
10 3
0 7
3 0
0 8
5 1

11 12
9
9 1
6 11
8 5
4 11
7 4
4 5
6 4
0 10
8 0
5 1

12 13
7
2 11
8 9
1 7
6 12
1 5
3 8
1 4
1 1
