*** Life<ConwayCell> 15x14 ***

Generation = 0, Population = 10.
...*.........*
..............
..............
.........*....
..............
....*.........
..............
..............
..............
....*.........
...........*..
............*.
..............
.........*....
........*.*...

Generation = 5, Population = 0.
..............
..............
..............
..............
..............
..............
..............
..............
..............
..............
..............
..............
..............
..............
..............

Generation = 10, Population = 0.
..............
..............
..............
..............
..............
..............
..............
..............
..............
..............
..............
..............
..............
..............
..............

Generation = 15, Population = 0.
..............
..............
..............
..............
..............
..............
..............
..............
..............
..............
..............
..............
..............
..............
..............

Generation = 20, Population = 0.
..............
..............
..............
..............
..............
..............
..............
..............
..............
..............
..............
..............
..............
..............
..............

Generation = 25, Population = 0.
..............
..............
..............
..............
..............
..............
..............
..............
..............
..............
..............
..............
..............
..............
..............

*** Life<ConwayCell> 18x13 ***

Generation = 0, Population = 10.
....*........
.............
...*.....*...
.............
.............
..*.......*..
.............
.............
.............
.............
.............
.....*.......
.....*..*...*
......*......
.............
.............
.............
.............

Generation = 5, Population = 0.
.............
.............
.............
.............
.............
.............
.............
.............
.............
.............
.............
.............
.............
.............
.............
.............
.............
.............

Generation = 10, Population = 0.
.............
.............
.............
.............
.............
.............
.............
.............
.............
.............
.............
.............
.............
.............
.............
.............
.............
.............

Generation = 15, Population = 0.
.............
.............
.............
.............
.............
.............
.............
.............
.............
.............
.............
.............
.............
.............
.............
.............
.............
.............

Generation = 20, Population = 0.
.............
.............
.............
.............
.............
.............
.............
.............
.............
.............
.............
.............
.............
.............
.............
.............
.............
.............

Generation = 25, Population = 0.
.............
.............
.............
.............
.............
.............
.............
.............
.............
.............
.............
.............
.............
.............
.............
.............
.............
.............

*** Life<ConwayCell> 18x10 ***

Generation = 0, Population = 9.
..........
.....*....
..........
....*.....
..........
..........
*.........
...*....*.
..........
..........
..........
..*.......
......*...
..........
..........
......*...
...*......
..........

Generation = 5, Population = 0.
..........
..........
..........
..........
..........
..........
..........
..........
..........
..........
..........
..........
..........
..........
..........
..........
..........
..........

Generation = 10, Population = 0.
..........
..........
..........
..........
..........
..........
..........
..........
..........
..........
..........
..........
..........
..........
..........
..........
..........
..........

Generation = 15, Population = 0.
..........
..........
..........
..........
..........
..........
..........
..........
..........
..........
..........
..........
..........
..........
..........
..........
..........
..........

Generation = 20, Population = 0.
..........
..........
..........
..........
..........
..........
..........
..........
..........
..........
..........
..........
..........
..........
..........
..........
..........
..........

Generation = 25, Population = 0.
..........
..........
..........
..........
..........
..........
..........
..........
..........
..........
..........
..........
..........
..........
..........
..........
..........
..........

*** Life<ConwayCell> 19x15 ***

Generation = 0, Population = 10.
...............
............*..
...............
............*..
...............
............*..
.....*.......*.
..........*....
......*........
...............
...............
..........*....
...............
............*..
...............
...............
....*..........
...............
...............

Generation = 5, Population = 0.
...............
...............
...............
...............
...............
...............
...............
...............
...............
...............
...............
...............
...............
...............
...............
...............
...............
...............
...............

Generation = 10, Population = 0.
...............
...............
...............
...............
...............
...............
...............
...............
...............
...............
...............
...............
...............
...............
...............
...............
...............
...............
...............

Generation = 15, Population = 0.
...............
...............
...............
...............
...............
...............
...............
...............
...............
...............
...............
...............
...............
...............
...............
...............
...............
...............
...............

Generation = 20, Population = 0.
...............
...............
...............
...............
...............
...............
...............
...............
...............
...............
...............
...............
...............
...............
...............
...............
...............
...............
...............

Generation = 25, Population = 0.
...............
...............
...............
...............
...............
...............
...............
...............
...............
...............
...............
...............
...............
...............
...............
...............
...............
...............
...............

*** Life<ConwayCell> 12x10 ***

Generation = 0, Population = 10.
.........*
..*.......
..........
.........*
..........
........*.
.*.....*..
.*.....*..
.*........
.*........
..........
..........

Generation = 5, Population = 6.
..........
..........
..........
..........
..........
..........
.*........
*.*.......
*.*.......
.*........
..........
..........

Generation = 10, Population = 6.
..........
..........
..........
..........
..........
..........
.*........
*.*.......
*.*.......
.*........
..........
..........

Generation = 15, Population = 6.
..........
..........
..........
..........
..........
..........
.*........
*.*.......
*.*.......
.*........
..........
..........

Generation = 20, Population = 6.
..........
..........
..........
..........
..........
..........
.*........
*.*.......
*.*.......
.*........
..........
..........

Generation = 25, Population = 6.
..........
..........
..........
..........
..........
..........
.*........
*.*.......
*.*.......
.*........
..........
..........

*** Life<ConwayCell> 6x19 ***

Generation = 0, Population = 10.
..............*....
....*..............
.........*........*
.........*......*..
.........*.........
.*...........**....

Generation = 5, Population = 3.
...................
...................
...................
........***........
...................
...................

Generation = 10, Population = 3.
...................
...................
.........*.........
.........*.........
.........*.........
...................

Generation = 15, Population = 3.
...................
...................
...................
........***........
...................
...................

Generation = 20, Population = 3.
...................
...................
.........*.........
.........*.........
.........*.........
...................

Generation = 25, Population = 3.
...................
...................
...................
........***........
...................
...................

*** Life<ConwayCell> 19x20 ***

Generation = 0, Population = 10.
....................
..................*.
...................*
......*.............
.......*............
....................
....................
....................
....................
.........*....*.....
....................
.*.........*........
....................
....*...............
............*.......
....................
....................
....................
....................

Generation = 5, Population = 0.
....................
....................
....................
....................
....................
....................
....................
....................
....................
....................
....................
....................
....................
....................
....................
....................
....................
....................
....................

Generation = 10, Population = 0.
....................
....................
....................
....................
....................
....................
....................
....................
....................
....................
....................
....................
....................
....................
....................
....................
....................
....................
....................

Generation = 15, Population = 0.
....................
....................
....................
....................
....................
....................
....................
....................
....................
....................
....................
....................
....................
....................
....................
....................
....................
....................
....................

Generation = 20, Population = 0.
....................
....................
....................
....................
....................
....................
....................
....................
....................
....................
....................
....................
....................
....................
....................
....................
....................
....................
....................

Generation = 25, Population = 0.
....................
....................
....................
....................
....................
....................
....................
....................
....................
....................
....................
....................
....................
....................
....................
....................
....................
....................
....................

*** Life<ConwayCell> 6x14 ***

Generation = 0, Population = 10.
..**..........
...*....*...*.
..............
.........*.*.*
...*....*.....
..............

Generation = 5, Population = 4.
..**..........
..**..........
..............
..............
..............
..............

Generation = 10, Population = 4.
..**..........
..**..........
..............
..............
..............
..............

Generation = 15, Population = 4.
..**..........
..**..........
..............
..............
..............
..............

Generation = 20, Population = 4.
..**..........
..**..........
..............
..............
..............
..............

Generation = 25, Population = 4.
..**..........
..**..........
..............
..............
..............
..............

*** Life<ConwayCell> 12x8 ***

Generation = 0, Population = 9.
.*....*.
......*.
*.**....
........
........
........
...*....
........
.....*..
.....*..
........
........

Generation = 5, Population = 0.
........
........
........
........
........
........
........
........
........
........
........
........

Generation = 10, Population = 0.
........
........
........
........
........
........
........
........
........
........
........
........

Generation = 15, Population = 0.
........
........
........
........
........
........
........
........
........
........
........
........

Generation = 20, Population = 0.
........
........
........
........
........
........
........
........
........
........
........
........

Generation = 25, Population = 0.
........
........
........
........
........
........
........
........
........
........
........
........

*** Life<ConwayCell> 20x7 ***

Generation = 0, Population = 10.
.......
.......
.......
..**...
.......
.......
.......
...*...
.......
...*...
.......
....*..
.......
.......
.......
.......
....**.
.......
...*..*
..*....

Generation = 5, Population = 0.
.......
.......
.......
.......
.......
.......
.......
.......
.......
.......
.......
.......
.......
.......
.......
.......
.......
.......
.......
.......

Generation = 10, Population = 0.
.......
.......
.......
.......
.......
.......
.......
.......
.......
.......
.......
.......
.......
.......
.......
.......
.......
.......
.......
.......

Generation = 15, Population = 0.
.......
.......
.......
.......
.......
.......
.......
.......
.......
.......
.......
.......
.......
.......
.......
.......
.......
.......
.......
.......

Generation = 20, Population = 0.
.......
.......
.......
.......
.......
.......
.......
.......
.......
.......
.......
.......
.......
.......
.......
.......
.......
.......
.......
.......

Generation = 25, Population = 0.
.......
.......
.......
.......
.......
.......
.......
.......
.......
.......
.......
.......
.......
.......
.......
.......
.......
.......
.......
.......
